[gd_scene load_steps=2 format=2]

[sub_resource type="GDScript" id=1]

script/source = "extends Node

func _ready():
	var level = Global.load_level(get_tree().get_meta(\"target_path\"))
	get_tree().change_scene_to(level)
"

[node name="InterimLoadingScene" type="Node"]
script = SubResource( 1 )

