[gd_resource type="Resource" load_steps=5 format=2]

[ext_resource path="res://level_objects/TerrainLine.tscn" type="PackedScene" id=1]
[ext_resource path="res://level_objects/steel_block/steel.png" type="Texture" id=2]
[ext_resource path="res://level_editor/scripts/placeable.gd" type="Script" id=3]


[sub_resource type="AtlasTexture" id=1]

flags = 2
atlas = ExtResource( 2 )
region = Rect2( 0, 0, 4, 1 )
margin = Rect2( 0, 0, 0, 0 )
filter_clip = false

[resource]

script = ExtResource( 3 )
_sections_unfolded = [ "Script" ]
PREVIEW_SPRITE = SubResource( 1 )
OBJECT = ExtResource( 1 )

