[gd_scene load_steps=5 format=2]

[ext_resource path="res://cloud.png" type="Texture" id=1]
[ext_resource path="res://level_editor/scripts/editor_only.gd" type="Script" id=2]
[ext_resource path="res://level_editor/scripts/editor_selection_box.gd" type="Script" id=3]

[sub_resource type="GDScript" id=1]

script/source = "extends ParallaxLayer

func _ready():
	if owner:
		var bg = owner.get_node(\"Background\")
	
		if bg:
			get_parent().remove_child(self)
			bg.add_child(self)
"

[node name="Cloud" type="ParallaxLayer"]
motion_scale = Vector2( 0.25, 0.01 )
script = SubResource( 1 )

[node name="Sprite" type="Sprite" parent="."]
z_index = -10
texture = ExtResource( 1 )

[node name="Editor" type="Node2D" parent="."]
script = ExtResource( 2 )

[node name="Control" type="Control" parent="Editor"]
margin_left = -26.0
margin_top = -13.0
margin_right = 30.0
margin_bottom = 13.0
script = ExtResource( 3 )

