[gd_resource type="Resource" load_steps=4 format=2]

[ext_resource path="res://level_objects/Rock.tscn" type="PackedScene" id=1]
[ext_resource path="res://rock.png" type="Texture" id=2]
[ext_resource path="res://level_editor/scripts/placeable.gd" type="Script" id=3]

[resource]

script = ExtResource( 3 )
PREVIEW_SPRITE = ExtResource( 2 )
OBJECT = ExtResource( 1 )

