[gd_scene load_steps=7 format=2]

[ext_resource path="res://alloi/sprites/punch_projectile.png" type="Texture" id=1]
[ext_resource path="res://misc/frame_animator.gd" type="Script" id=2]



[sub_resource type="GDScript" id=5]

script/source = "extends Area2D

export (float) var DISTANCE = 200
export (float) var FLY_TIME = 0.5

var speed = 0

func _enter_tree():
	connect(\"body_entered\", self, \"punch\")

func _ready():
	speed = DISTANCE / FLY_TIME

	var adjusted_fly_time = FLY_TIME - ($AnimationPlayer.get_animation(\"burn_out\").length * 0.0166)
	if adjusted_fly_time > 0:
		var timer = Timer.new()
		timer.wait_time = adjusted_fly_time
		add_child(timer)
		timer.one_shot = true
		timer.connect(\"timeout\", self, \"burn_out\")
		timer.start()
	else:
		burn_out()

func _process(delta):
	move_local_x(speed * delta)

func burn_out():
	$AnimationPlayer.play(\"burn_out\")

func punch(body):
	if body.has_method(\"punch\"):
		body.punch(global_position)
		queue_free()
"

[sub_resource type="ConvexPolygonShape2D" id=2]

custom_solver_bias = 0.0
points = PoolVector2Array( -18.53, -15.35, -11.6497, -15.32, -3.24025, -11.94, 1.96, 0, -3.74, 13.92, -12.14, 16.88, -18.81, 17.09 )
_sections_unfolded = [ "points" ]

[sub_resource type="Animation" id=3]

resource_name = "burn_out"
length = 4.0
loop = false
step = 1.0
tracks/0/type = "value"
tracks/0/path = NodePath("Sprite:frame")
tracks/0/interp = 1
tracks/0/loop_wrap = true
tracks/0/imported = false
tracks/0/enabled = true
tracks/0/keys = {
"times": PoolRealArray( 0, 4 ),
"transitions": PoolRealArray( 1, 1 ),
"update": 1,
"values": [ 1, 1 ]
}
tracks/1/type = "value"
tracks/1/path = NodePath("CollisionShape2D:shape:points")
tracks/1/interp = 1
tracks/1/loop_wrap = true
tracks/1/imported = false
tracks/1/enabled = true
tracks/1/keys = {
"times": PoolRealArray( 0 ),
"transitions": PoolRealArray( 1 ),
"update": 1,
"values": [ PoolVector2Array( -18.53, -15.35, -11.6497, -15.32, -3.24025, -11.94, 1.96, 0, -3.74, 13.92, -12.14, 16.88, -18.81, 17.09 ) ]
}
tracks/2/type = "method"
tracks/2/path = NodePath(".")
tracks/2/interp = 1
tracks/2/loop_wrap = true
tracks/2/imported = false
tracks/2/enabled = true
tracks/2/keys = {
"times": PoolRealArray( 4 ),
"transitions": PoolRealArray( 1 ),
"values": [ {
"args": [  ],
"method": "queue_free"
} ]
}

[sub_resource type="Animation" id=4]

resource_name = "default"
length = 1.0
loop = false
step = 0.1
tracks/0/type = "value"
tracks/0/path = NodePath("CollisionShape2D:shape:points")
tracks/0/interp = 1
tracks/0/loop_wrap = true
tracks/0/imported = false
tracks/0/enabled = true
tracks/0/keys = {
"times": PoolRealArray( 0 ),
"transitions": PoolRealArray( 1 ),
"update": 1,
"values": [ PoolVector2Array( -32.62, -15.35, -11.6497, -15.32, -3.24025, -11.94, 1.96, 0, -3.74, 13.92, -12.14, 16.88, -33.6, 17.09 ) ]
}
tracks/1/type = "value"
tracks/1/path = NodePath("Sprite:frame")
tracks/1/interp = 1
tracks/1/loop_wrap = true
tracks/1/imported = false
tracks/1/enabled = true
tracks/1/keys = {
"times": PoolRealArray( 0 ),
"transitions": PoolRealArray( 1 ),
"update": 1,
"values": [ 0 ]
}

[node name="PunchProjectile" type="Area2D"]
z_index = 2
input_pickable = true
gravity_vec = Vector2( 0, 1 )
gravity = 98.0
linear_damp = 0.1
angular_damp = 1.0
monitorable = false
collision_layer = 0
collision_mask = 2
audio_bus_override = false
audio_bus_name = "Master"
script = SubResource( 5 )
_sections_unfolded = [ "Collision", "Z Index" ]
DISTANCE = 100.0
FLY_TIME = 0.25

[node name="Sprite" type="Sprite" parent="."]
position = Vector2( -16, 0 )
texture = ExtResource( 1 )
hframes = 2
frame = 1
_sections_unfolded = [ "Animation", "Z Index" ]

[node name="CollisionShape2D" type="CollisionShape2D" parent="."]
shape = SubResource( 2 )
_sections_unfolded = [ "shape" ]

[node name="AnimationPlayer" type="AnimationPlayer" parent="."]
root_node = NodePath("..")
autoplay = "default"
playback_process_mode = 2
playback_default_blend_time = 0.0
playback_speed = 1.0
anims/burn_out = SubResource( 3 )
anims/default = SubResource( 4 )
blend_times = [  ]
script = ExtResource( 2 )
_sections_unfolded = [ "Playback Options" ]

